Time,TEC Temperature,humidity,Air Temperature,3V3 voltage,3V3 current,1V5 voltage,1V5 current,
2019-04-11 12:10:26.790143,
2019-04-11 12:10:42.942135,0.0,23.61,0.0,23.61,0.0,23.6,0.0,23.6,
2019-04-11 12:11:09.841143,0.0,23.61,0.0,23.6,
2019-04-11 12:11:34.747080,0.0,23.6,0.0,23.6,
2019-04-11 12:11:59.653128,0.0,23.62,0.0,23.61,
2019-04-11 12:12:24.558713,0.0,23.61,0.0,23.6,
