ABCStar NEXYS MACaddress  TEC port Temperature
11	210276A793E9 16    USB2	   10.1
12	210276A79577 17    USB5	   16.2
13	210276A792C4 18	   USB3	   20.0
14	210276A793A6 19	   USB4	   14.3


Extension Cord 1: Rasp. pi
Extension Cord 2: Nexys
USB cord 1: TEC
USB cord 2: Rasp pi + Nexys

PS FMC port:
PS Chip port:

for later
*07d0fb^*0d5e2e^
*0c6700^
*000af1^*0000c0^*07d0fb^*07d0fb^*07d0fb^*0640ca^*0a8700^*0640ca^*0640ca^*0640ca^
*000af1^*0000c0^*07d0fb^*07d0fb^*07d0fb^*07d0fb^*05dc2c^*05dc2c^*05dc2c^*09ee33^
should be ~15
*07d0fb^*07d0fb^*07d0fb^*07e905^

12:3
11:4
13:5

